{
	"name": "jokio-app",
	"version": "0.0.1",
	"author": "",
	"description": "",
	"main": "dist/index.js",
	"types": "dist/index.d.js",
	"scripts": {
		"start": "ts-node src",
		"test": "ts-node ./node_modules/jokio/src/_test",
		"dev": "nodemon",
		"build": "tsc"
	},
	"dependencies": {
		"graphql-voyager": "1.0.0-rc.19",
		"graphql-yoga": "1.15.1",
		"jokio": "0.3.0"
	},
	"devDependencies": {
		"@types/hapi": "17.0.13",
		"@types/koa": "2.0.46",
		"@types/jest": "22.1.0",
		"dotenv": "6.0.0",
		"jest": "22.1.4",
		"nodemon": "1.14.11",
		"ts-jest": "22.0.1",
		"ts-node": "4.0.1",
		"tslint": "5.11.0",
		"typescript": "3.0.1"
	},
	"repository": {
		"type": "git",
		"url": ""
	},
	"publishConfig": {
		"access": "public"
	},
	"keywords": [
		"jok"
	],
	"license": "MIT",
	"jest": {
		"transform": {
			"^.+\\.tsx?$": "ts-jest"
		},
		"testURL": "http://localhost/",
		"testRegex": "(/__tests__/.*|(\\.|/)(test|spec))\\.(jsx?|tsx?)$",
		"moduleFileExtensions": [
			"ts",
			"tsx",
			"js",
			"jsx",
			"json",
			"node"
		]
	}
}