{
	"rules": {
		"member-access": false,
		"member-ordering": [
			true,
			"static-before-instance"
		],
		"no-any": false,
		"no-inferrable-types": false,
		"no-internal-module": true,
		"no-var-requires": false,
		"typedef": false,
		"typedef-whitespace": [
			false,
			{
				"call-signature": "nospace",
				"index-signature": "nospace",
				"parameter": "nospace",
				"property-declaration": "space",
				"variable-declaration": "space"
			},
			{
				"call-signature": "space",
				"index-signature": "space",
				"parameter": "space",
				"property-declaration": "space",
				"variable-declaration": "space"
			}
		],
		"ban": false,
		"curly": false,
		"forin": false,
		"label-position": true,
		"no-arg": true,
		"no-bitwise": false,
		"no-conditional-assignment": true,
		"no-console": [
			true,
			"debug",
			"info",
			"time",
			"timeEnd",
			"trace"
		],
		"no-construct": true,
		"no-debugger": true,
		"no-duplicate-variable": true,
		"no-empty": false,
		"no-eval": true,
		"no-null-keyword": false,
		"no-shadowed-variable": true,
		"no-string-literal": false,
		"no-switch-case-fall-through": true,
		"no-unused-expression": true,
		"no-use-before-declare": true,
		"no-var-keyword": true,
		"radix": true,
		"switch-default": true,
		"triple-equals": [
			true,
			"allow-null-check"
		],
		"eofline": true,
		"indent": [
			true,
			"tabs"
		],
		"max-line-length": [
			true,
			150
		],
		"no-require-imports": false,
		"no-trailing-whitespace": true,
		"object-literal-sort-keys": false,
		"trailing-comma": [
			true,
			{
				"multiline": "always",
				"singleline": "never"
			}
		],
		"align": false,
		"class-name": true,
		"comment-format": [
			false,
			"check-space"
		],
		"interface-name": false,
		"jsdoc-format": false,
		"no-consecutive-blank-lines": false,
		"no-parameter-properties": false,
		"one-line": [
			true,
			"check-open-brace",
			"check-catch",
			"check-else",
			"check-finally",
			"check-whitespace"
		],
		"quotemark": [
			true,
			"single",
			"avoid-escape"
		],
		"semicolon": [
			true,
			"never"
		],
		"variable-name": [
			true,
			"check-format",
			"allow-leading-underscore",
			"allow-trailing-underscore",
			"allow-pascal-case",
			"ban-keywords"
		],
		"whitespace": [
			true,
			"check-branch",
			"check-decl",
			"check-operator",
			"check-separator",
			"check-type"
		]
	}
}